%YAML 1.1
%TAG !u! tag:unity3d.com,2011:
--- !u!1 &974202589164302644
GameObject:
  m_ObjectHideFlags: 0
  m_CorrespondingSourceObject: {fileID: 0}
  m_PrefabInstance: {fileID: 0}
  m_PrefabAsset: {fileID: 0}
  serializedVersion: 6
  m_Component:
  - component: {fileID: 8683899631082868547}
  - component: {fileID: 2519678257452849597}
  m_Layer: 31
  m_Name: Ground Tile
  m_TagString: Untagged
  m_Icon: {fileID: 0}
  m_NavMeshLayer: 0
  m_StaticEditorFlags: 0
  m_IsActive: 1
--- !u!4 &8683899631082868547
Transform:
  m_ObjectHideFlags: 0
  m_CorrespondingSourceObject: {fileID: 0}
  m_PrefabInstance: {fileID: 0}
  m_PrefabAsset: {fileID: 0}
  m_GameObject: {fileID: 974202589164302644}
  m_LocalRotation: {x: 0, y: 0, z: 0, w: 1}
  m_LocalPosition: {x: 0, y: 0, z: 0}
  m_LocalScale: {x: 1, y: 1, z: 1}
  m_Children:
  - {fileID: 4039659166073989974}
  m_Father: {fileID: 0}
  m_RootOrder: 0
  m_LocalEulerAnglesHint: {x: 0, y: 0, z: 0}
--- !u!156049354 &2519678257452849597
Grid:
  m_ObjectHideFlags: 0
  m_CorrespondingSourceObject: {fileID: 0}
  m_PrefabInstance: {fileID: 0}
  m_PrefabAsset: {fileID: 0}
  m_GameObject: {fileID: 974202589164302644}
  m_Enabled: 1
  m_CellSize: {x: 1, y: 1, z: 0}
  m_CellGap: {x: 0, y: 0, z: 0}
  m_CellLayout: 0
  m_CellSwizzle: 0
--- !u!1 &1794007949722989041
GameObject:
  m_ObjectHideFlags: 0
  m_CorrespondingSourceObject: {fileID: 0}
  m_PrefabInstance: {fileID: 0}
  m_PrefabAsset: {fileID: 0}
  serializedVersion: 6
  m_Component:
  - component: {fileID: 4039659166073989974}
  - component: {fileID: 8352421734129831013}
  - component: {fileID: 3153243524930976626}
  m_Layer: 31
  m_Name: Layer1
  m_TagString: Untagged
  m_Icon: {fileID: 0}
  m_NavMeshLayer: 0
  m_StaticEditorFlags: 0
  m_IsActive: 1
--- !u!4 &4039659166073989974
Transform:
  m_ObjectHideFlags: 0
  m_CorrespondingSourceObject: {fileID: 0}
  m_PrefabInstance: {fileID: 0}
  m_PrefabAsset: {fileID: 0}
  m_GameObject: {fileID: 1794007949722989041}
  m_LocalRotation: {x: -0, y: -0, z: -0, w: 1}
  m_LocalPosition: {x: 0, y: 0, z: 0}
  m_LocalScale: {x: 1, y: 1, z: 1}
  m_Children: []
  m_Father: {fileID: 8683899631082868547}
  m_RootOrder: 0
  m_LocalEulerAnglesHint: {x: 0, y: 0, z: 0}
--- !u!1839735485 &8352421734129831013
Tilemap:
  m_ObjectHideFlags: 0
  m_CorrespondingSourceObject: {fileID: 0}
  m_PrefabInstance: {fileID: 0}
  m_PrefabAsset: {fileID: 0}
  m_GameObject: {fileID: 1794007949722989041}
  m_Enabled: 1
  m_Tiles:
  - first: {x: 2, y: -7, z: 0}
    second:
      m_TileIndex: 59
      m_TileSpriteIndex: 60
      m_TileMatrixIndex: 0
      m_TileColorIndex: 0
      m_ObjectToInstantiate: {fileID: 0}
      m_TileFlags: 1
      m_ColliderType: 1
  - first: {x: 3, y: -7, z: 0}
    second:
      m_TileIndex: 60
      m_TileSpriteIndex: 59
      m_TileMatrixIndex: 0
      m_TileColorIndex: 0
      m_ObjectToInstantiate: {fileID: 0}
      m_TileFlags: 1
      m_ColliderType: 1
  - first: {x: 2, y: -6, z: 0}
    second:
      m_TileIndex: 52
      m_TileSpriteIndex: 58
      m_TileMatrixIndex: 0
      m_TileColorIndex: 0
      m_ObjectToInstantiate: {fileID: 0}
      m_TileFlags: 1
      m_ColliderType: 1
  - first: {x: 3, y: -6, z: 0}
    second:
      m_TileIndex: 53
      m_TileSpriteIndex: 57
      m_TileMatrixIndex: 0
      m_TileColorIndex: 0
      m_ObjectToInstantiate: {fileID: 0}
      m_TileFlags: 1
      m_ColliderType: 1
  - first: {x: 4, y: -6, z: 0}
    second:
      m_TileIndex: 54
      m_TileSpriteIndex: 56
      m_TileMatrixIndex: 0
      m_TileColorIndex: 0
      m_ObjectToInstantiate: {fileID: 0}
      m_TileFlags: 1
      m_ColliderType: 1
  - first: {x: 5, y: -6, z: 0}
    second:
      m_TileIndex: 55
      m_TileSpriteIndex: 55
      m_TileMatrixIndex: 0
      m_TileColorIndex: 0
      m_ObjectToInstantiate: {fileID: 0}
      m_TileFlags: 1
      m_ColliderType: 1
  - first: {x: 6, y: -6, z: 0}
    second:
      m_TileIndex: 56
      m_TileSpriteIndex: 54
      m_TileMatrixIndex: 0
      m_TileColorIndex: 0
      m_ObjectToInstantiate: {fileID: 0}
      m_TileFlags: 1
      m_ColliderType: 1
  - first: {x: 7, y: -6, z: 0}
    second:
      m_TileIndex: 57
      m_TileSpriteIndex: 53
      m_TileMatrixIndex: 0
      m_TileColorIndex: 0
      m_ObjectToInstantiate: {fileID: 0}
      m_TileFlags: 1
      m_ColliderType: 1
  - first: {x: 8, y: -6, z: 0}
    second:
      m_TileIndex: 58
      m_TileSpriteIndex: 52
      m_TileMatrixIndex: 0
      m_TileColorIndex: 0
      m_ObjectToInstantiate: {fileID: 0}
      m_TileFlags: 1
      m_ColliderType: 1
  - first: {x: 2, y: -5, z: 0}
    second:
      m_TileIndex: 45
      m_TileSpriteIndex: 51
      m_TileMatrixIndex: 0
      m_TileColorIndex: 0
      m_ObjectToInstantiate: {fileID: 0}
      m_TileFlags: 1
      m_ColliderType: 1
  - first: {x: 3, y: -5, z: 0}
    second:
      m_TileIndex: 46
      m_TileSpriteIndex: 50
      m_TileMatrixIndex: 0
      m_TileColorIndex: 0
      m_ObjectToInstantiate: {fileID: 0}
      m_TileFlags: 1
      m_ColliderType: 1
  - first: {x: 4, y: -5, z: 0}
    second:
      m_TileIndex: 47
      m_TileSpriteIndex: 49
      m_TileMatrixIndex: 0
      m_TileColorIndex: 0
      m_ObjectToInstantiate: {fileID: 0}
      m_TileFlags: 1
      m_ColliderType: 1
  - first: {x: 5, y: -5, z: 0}
    second:
      m_TileIndex: 48
      m_TileSpriteIndex: 48
      m_TileMatrixIndex: 0
      m_TileColorIndex: 0
      m_ObjectToInstantiate: {fileID: 0}
      m_TileFlags: 1
      m_ColliderType: 1
  - first: {x: 6, y: -5, z: 0}
    second:
      m_TileIndex: 49
      m_TileSpriteIndex: 47
      m_TileMatrixIndex: 0
      m_TileColorIndex: 0
      m_ObjectToInstantiate: {fileID: 0}
      m_TileFlags: 1
      m_ColliderType: 1
  - first: {x: 7, y: -5, z: 0}
    second:
      m_TileIndex: 50
      m_TileSpriteIndex: 46
      m_TileMatrixIndex: 0
      m_TileColorIndex: 0
      m_ObjectToInstantiate: {fileID: 0}
      m_TileFlags: 1
      m_ColliderType: 1
  - first: {x: 8, y: -5, z: 0}
    second:
      m_TileIndex: 51
      m_TileSpriteIndex: 45
      m_TileMatrixIndex: 0
      m_TileColorIndex: 0
      m_ObjectToInstantiate: {fileID: 0}
      m_TileFlags: 1
      m_ColliderType: 1
  - first: {x: 2, y: -4, z: 0}
    second:
      m_TileIndex: 31
      m_TileSpriteIndex: 44
      m_TileMatrixIndex: 0
      m_TileColorIndex: 0
      m_ObjectToInstantiate: {fileID: 0}
      m_TileFlags: 1
      m_ColliderType: 1
  - first: {x: 3, y: -4, z: 0}
    second:
      m_TileIndex: 32
      m_TileSpriteIndex: 43
      m_TileMatrixIndex: 0
      m_TileColorIndex: 0
      m_ObjectToInstantiate: {fileID: 0}
      m_TileFlags: 1
      m_ColliderType: 1
  - first: {x: 4, y: -4, z: 0}
    second:
      m_TileIndex: 33
      m_TileSpriteIndex: 42
      m_TileMatrixIndex: 0
      m_TileColorIndex: 0
      m_ObjectToInstantiate: {fileID: 0}
      m_TileFlags: 1
      m_ColliderType: 1
  - first: {x: 5, y: -4, z: 0}
    second:
      m_TileIndex: 34
      m_TileSpriteIndex: 41
      m_TileMatrixIndex: 0
      m_TileColorIndex: 0
      m_ObjectToInstantiate: {fileID: 0}
      m_TileFlags: 1
      m_ColliderType: 1
  - first: {x: 6, y: -4, z: 0}
    second:
      m_TileIndex: 42
      m_TileSpriteIndex: 40
      m_TileMatrixIndex: 0
      m_TileColorIndex: 0
      m_ObjectToInstantiate: {fileID: 0}
      m_TileFlags: 1
      m_ColliderType: 1
  - first: {x: 7, y: -4, z: 0}
    second:
      m_TileIndex: 43
      m_TileSpriteIndex: 39
      m_TileMatrixIndex: 0
      m_TileColorIndex: 0
      m_ObjectToInstantiate: {fileID: 0}
      m_TileFlags: 1
      m_ColliderType: 1
  - first: {x: 8, y: -4, z: 0}
    second:
      m_TileIndex: 44
      m_TileSpriteIndex: 38
      m_TileMatrixIndex: 0
      m_TileColorIndex: 0
      m_ObjectToInstantiate: {fileID: 0}
      m_TileFlags: 1
      m_ColliderType: 1
  - first: {x: 2, y: -3, z: 0}
    second:
      m_TileIndex: 24
      m_TileSpriteIndex: 37
      m_TileMatrixIndex: 0
      m_TileColorIndex: 0
      m_ObjectToInstantiate: {fileID: 0}
      m_TileFlags: 1
      m_ColliderType: 1
  - first: {x: 3, y: -3, z: 0}
    second:
      m_TileIndex: 25
      m_TileSpriteIndex: 29
      m_TileMatrixIndex: 0
      m_TileColorIndex: 0
      m_ObjectToInstantiate: {fileID: 0}
      m_TileFlags: 1
      m_ColliderType: 1
  - first: {x: 4, y: -3, z: 0}
    second:
      m_TileIndex: 26
      m_TileSpriteIndex: 28
      m_TileMatrixIndex: 0
      m_TileColorIndex: 0
      m_ObjectToInstantiate: {fileID: 0}
      m_TileFlags: 1
      m_ColliderType: 1
  - first: {x: 5, y: -3, z: 0}
    second:
      m_TileIndex: 27
      m_TileSpriteIndex: 27
      m_TileMatrixIndex: 0
      m_TileColorIndex: 0
      m_ObjectToInstantiate: {fileID: 0}
      m_TileFlags: 1
      m_ColliderType: 1
  - first: {x: 6, y: -3, z: 0}
    second:
      m_TileIndex: 39
      m_TileSpriteIndex: 26
      m_TileMatrixIndex: 0
      m_TileColorIndex: 0
      m_ObjectToInstantiate: {fileID: 0}
      m_TileFlags: 1
      m_ColliderType: 1
  - first: {x: 7, y: -3, z: 0}
    second:
      m_TileIndex: 40
      m_TileSpriteIndex: 25
      m_TileMatrixIndex: 0
      m_TileColorIndex: 0
      m_ObjectToInstantiate: {fileID: 0}
      m_TileFlags: 1
      m_ColliderType: 1
  - first: {x: 8, y: -3, z: 0}
    second:
      m_TileIndex: 41
      m_TileSpriteIndex: 24
      m_TileMatrixIndex: 0
      m_TileColorIndex: 0
      m_ObjectToInstantiate: {fileID: 0}
      m_TileFlags: 1
      m_ColliderType: 1
  - first: {x: 2, y: -2, z: 0}
    second:
      m_TileIndex: 36
      m_TileSpriteIndex: 36
      m_TileMatrixIndex: 0
      m_TileColorIndex: 0
      m_ObjectToInstantiate: {fileID: 0}
      m_TileFlags: 1
      m_ColliderType: 1
  - first: {x: 3, y: -2, z: 0}
    second:
      m_TileIndex: 18
      m_TileSpriteIndex: 35
      m_TileMatrixIndex: 0
      m_TileColorIndex: 0
      m_ObjectToInstantiate: {fileID: 0}
      m_TileFlags: 1
      m_ColliderType: 1
  - first: {x: 4, y: -2, z: 0}
    second:
      m_TileIndex: 19
      m_TileSpriteIndex: 34
      m_TileMatrixIndex: 0
      m_TileColorIndex: 0
      m_ObjectToInstantiate: {fileID: 0}
      m_TileFlags: 1
      m_ColliderType: 1
  - first: {x: 5, y: -2, z: 0}
    second:
      m_TileIndex: 20
      m_TileSpriteIndex: 33
      m_TileMatrixIndex: 0
      m_TileColorIndex: 0
      m_ObjectToInstantiate: {fileID: 0}
      m_TileFlags: 1
      m_ColliderType: 1
  - first: {x: 6, y: -2, z: 0}
    second:
      m_TileIndex: 17
      m_TileSpriteIndex: 32
      m_TileMatrixIndex: 0
      m_TileColorIndex: 0
      m_ObjectToInstantiate: {fileID: 0}
      m_TileFlags: 1
      m_ColliderType: 1
  - first: {x: 7, y: -2, z: 0}
    second:
      m_TileIndex: 37
      m_TileSpriteIndex: 31
      m_TileMatrixIndex: 0
      m_TileColorIndex: 0
      m_ObjectToInstantiate: {fileID: 0}
      m_TileFlags: 1
      m_ColliderType: 1
  - first: {x: 8, y: -2, z: 0}
    second:
      m_TileIndex: 38
      m_TileSpriteIndex: 30
      m_TileMatrixIndex: 0
      m_TileColorIndex: 0
      m_ObjectToInstantiate: {fileID: 0}
      m_TileFlags: 1
      m_ColliderType: 1
  m_AnimatedTiles: {}
  m_TileAssetArray:
  - m_RefCount: 0
    m_Data: {fileID: 0}
  - m_RefCount: 0
    m_Data: {fileID: 0}
  - m_RefCount: 0
    m_Data: {fileID: 0}
  - m_RefCount: 0
    m_Data: {fileID: 0}
  - m_RefCount: 0
    m_Data: {fileID: 0}
  - m_RefCount: 0
    m_Data: {fileID: 0}
  - m_RefCount: 0
    m_Data: {fileID: 0}
  - m_RefCount: 0
    m_Data: {fileID: 0}
  - m_RefCount: 0
    m_Data: {fileID: 0}
  - m_RefCount: 0
    m_Data: {fileID: 0}
  - m_RefCount: 0
    m_Data: {fileID: 0}
  - m_RefCount: 0
    m_Data: {fileID: 0}
  - m_RefCount: 0
    m_Data: {fileID: 0}
  - m_RefCount: 0
    m_Data: {fileID: 0}
  - m_RefCount: 0
    m_Data: {fileID: 0}
  - m_RefCount: 0
    m_Data: {fileID: 0}
  - m_RefCount: 0
    m_Data: {fileID: 0}
  - m_RefCount: 1
    m_Data: {fileID: 11400000, guid: bfd06e49e49c31c4ab5448f38a02dc20, type: 2}
  - m_RefCount: 1
    m_Data: {fileID: 11400000, guid: e5cb5f1447b126f47994c0da3193a031, type: 2}
  - m_RefCount: 1
    m_Data: {fileID: 11400000, guid: 29c58509a75f1bc48a3f2c1fccacd113, type: 2}
  - m_RefCount: 1
    m_Data: {fileID: 11400000, guid: 1466df6f97a7e4a479c201712f6049a4, type: 2}
  - m_RefCount: 0
    m_Data: {fileID: 0}
  - m_RefCount: 0
    m_Data: {fileID: 0}
  - m_RefCount: 0
    m_Data: {fileID: 0}
  - m_RefCount: 1
    m_Data: {fileID: 11400000, guid: ff178530e04bb33419db30613c095b06, type: 2}
  - m_RefCount: 1
    m_Data: {fileID: 11400000, guid: 7921f9b7c7c3f9346853227424f7e592, type: 2}
  - m_RefCount: 1
    m_Data: {fileID: 11400000, guid: b3b8e84dedcb294438481fca683f4e58, type: 2}
  - m_RefCount: 1
    m_Data: {fileID: 11400000, guid: c15a3cea71b5f1f4d9c6891e95306f79, type: 2}
  - m_RefCount: 0
    m_Data: {fileID: 0}
  - m_RefCount: 0
    m_Data: {fileID: 0}
  - m_RefCount: 0
    m_Data: {fileID: 0}
  - m_RefCount: 1
    m_Data: {fileID: 11400000, guid: df2f9616d70ebf848a633312d5244665, type: 2}
  - m_RefCount: 1
    m_Data: {fileID: 11400000, guid: 57f43587bcd81da4fa182358a890440a, type: 2}
  - m_RefCount: 1
    m_Data: {fileID: 11400000, guid: c99d2b5c0924ab24794a1623b2266f73, type: 2}
  - m_RefCount: 1
    m_Data: {fileID: 11400000, guid: 3c6eafa56c7471840a2072b667a68f71, type: 2}
  - m_RefCount: 0
    m_Data: {fileID: 0}
  - m_RefCount: 1
    m_Data: {fileID: 11400000, guid: 42a4ab8149ee28849be66c777fa25a41, type: 2}
  - m_RefCount: 1
    m_Data: {fileID: 11400000, guid: 4d7f8275d67e8294bace815c254acb62, type: 2}
  - m_RefCount: 1
    m_Data: {fileID: 11400000, guid: f2bd06faa7d71c74f900981c3b2e3513, type: 2}
  - m_RefCount: 1
    m_Data: {fileID: 11400000, guid: 363d68bab8f812b4d88340f1c0b406c0, type: 2}
  - m_RefCount: 1
    m_Data: {fileID: 11400000, guid: efd9f6d42ba24f44fb329a3aa7981657, type: 2}
  - m_RefCount: 1
    m_Data: {fileID: 11400000, guid: 339cd74d84732f84b886f7ec607d3306, type: 2}
  - m_RefCount: 1
    m_Data: {fileID: 11400000, guid: 37eb3c5d4b7e0ee479f001f772314b81, type: 2}
  - m_RefCount: 1
    m_Data: {fileID: 11400000, guid: 5303170ae53a7524aa2802d8eb397dae, type: 2}
  - m_RefCount: 1
    m_Data: {fileID: 11400000, guid: 49c5a012a8d68854a9743cbfdea9da21, type: 2}
  - m_RefCount: 1
    m_Data: {fileID: 11400000, guid: 2802c3191c136c642b785d6d80e5dab6, type: 2}
  - m_RefCount: 1
    m_Data: {fileID: 11400000, guid: e12cf86f2c1eaad4d943297075aea6f0, type: 2}
  - m_RefCount: 1
    m_Data: {fileID: 11400000, guid: 4109fd76a3bf25b4daa9c1d98110db4d, type: 2}
  - m_RefCount: 1
    m_Data: {fileID: 11400000, guid: e5d93fc064fbe974c8c2d5127f89bb2d, type: 2}
  - m_RefCount: 1
    m_Data: {fileID: 11400000, guid: de2892c366afcff4fb36c9522a6a4020, type: 2}
  - m_RefCount: 1
    m_Data: {fileID: 11400000, guid: 948147e5b4c3e7d49b0ec184db1af226, type: 2}
  - m_RefCount: 1
    m_Data: {fileID: 11400000, guid: cdbbc903a875c8f4d908e5370b49673a, type: 2}
  - m_RefCount: 1
    m_Data: {fileID: 11400000, guid: 78d6de7e692483640adf8cbb9e327dfd, type: 2}
  - m_RefCount: 1
    m_Data: {fileID: 11400000, guid: 283e1f466445d92438791d65e4292cda, type: 2}
  - m_RefCount: 1
    m_Data: {fileID: 11400000, guid: 4a2a014192c98e54bac506335b1bce7d, type: 2}
  - m_RefCount: 1
    m_Data: {fileID: 11400000, guid: bb5a1940db8253f49bea1db0bee97baa, type: 2}
  - m_RefCount: 1
    m_Data: {fileID: 11400000, guid: 90c7e3ec1f214ed4b949bd7a60f06b4e, type: 2}
  - m_RefCount: 1
    m_Data: {fileID: 11400000, guid: 230863e162f91f849826d7352d221105, type: 2}
  - m_RefCount: 1
    m_Data: {fileID: 11400000, guid: 0df79c9d4e4de6447b5aba34ac5d08d4, type: 2}
  - m_RefCount: 1
    m_Data: {fileID: 11400000, guid: dc1a1411c33eae341b978020592a50d0, type: 2}
  - m_RefCount: 1
    m_Data: {fileID: 11400000, guid: ee5010e4df830294d81f8fa8fcfd3a92, type: 2}
  m_TileSpriteArray:
  - m_RefCount: 0
    m_Data: {fileID: 0}
  - m_RefCount: 0
    m_Data: {fileID: 0}
  - m_RefCount: 0
    m_Data: {fileID: 0}
  - m_RefCount: 0
    m_Data: {fileID: 0}
  - m_RefCount: 0
    m_Data: {fileID: 0}
  - m_RefCount: 0
    m_Data: {fileID: 0}
  - m_RefCount: 0
    m_Data: {fileID: 0}
  - m_RefCount: 0
    m_Data: {fileID: 0}
  - m_RefCount: 0
    m_Data: {fileID: 0}
  - m_RefCount: 0
    m_Data: {fileID: 0}
  - m_RefCount: 0
    m_Data: {fileID: 0}
  - m_RefCount: 0
    m_Data: {fileID: 0}
  - m_RefCount: 0
    m_Data: {fileID: 0}
  - m_RefCount: 0
    m_Data: {fileID: 0}
  - m_RefCount: 0
    m_Data: {fileID: 0}
  - m_RefCount: 0
    m_Data: {fileID: 0}
  - m_RefCount: 0
    m_Data: {fileID: 0}
  - m_RefCount: 0
    m_Data: {fileID: 0}
  - m_RefCount: 0
    m_Data: {fileID: 0}
  - m_RefCount: 0
    m_Data: {fileID: 0}
  - m_RefCount: 0
    m_Data: {fileID: 0}
  - m_RefCount: 0
    m_Data: {fileID: 0}
  - m_RefCount: 0
    m_Data: {fileID: 0}
  - m_RefCount: 0
    m_Data: {fileID: 0}
  - m_RefCount: 1
    m_Data: {fileID: 21300000, guid: a8463355bd5f16a46b269d58e564de18, type: 3}
  - m_RefCount: 1
    m_Data: {fileID: 21300000, guid: 622f3005d88efde40965710d8eae0af8, type: 3}
  - m_RefCount: 1
    m_Data: {fileID: 21300000, guid: 06b5d3347dd49b24798e749e29ef4112, type: 3}
  - m_RefCount: 1
    m_Data: {fileID: 21300000, guid: dc58a7247f5805647b39ae533adaa857, type: 3}
  - m_RefCount: 1
    m_Data: {fileID: 21300000, guid: d2fdcd335d438b44fb9689afaa0782ef, type: 3}
  - m_RefCount: 1
    m_Data: {fileID: 21300000, guid: 12d15413dcf8f024d88fd03817c6b133, type: 3}
  - m_RefCount: 1
    m_Data: {fileID: 21300000, guid: 2827fa2254518ab4dbe2878ca37af5dd, type: 3}
  - m_RefCount: 1
    m_Data: {fileID: 21300000, guid: 33f2a822eed912b4992a09854b029af1, type: 3}
  - m_RefCount: 1
    m_Data: {fileID: 21300000, guid: 332473c121e92234893a3993bee5a089, type: 3}
  - m_RefCount: 1
    m_Data: {fileID: 21300000, guid: 5caa6031df88acf46b0f3d242a287763, type: 3}
  - m_RefCount: 1
    m_Data: {fileID: 21300000, guid: 8b2b81707760e1b449eac07a76491bd8, type: 3}
  - m_RefCount: 1
    m_Data: {fileID: 21300000, guid: a2e78f00ab0b18f44969b85fc2de6662, type: 3}
  - m_RefCount: 1
    m_Data: {fileID: 21300000, guid: 74ac9da08cb63734bbf5b28c6b62fabb, type: 3}
  - m_RefCount: 1
    m_Data: {fileID: 21300000, guid: 6059e0822b588aa4f976824209726a88, type: 3}
  - m_RefCount: 1
    m_Data: {fileID: 21300000, guid: 17aec1b8523546345ae624bf4fd5b2e4, type: 3}
  - m_RefCount: 1
    m_Data: {fileID: 21300000, guid: 752e7948c5e376e46b151080dc13418e, type: 3}
  - m_RefCount: 1
    m_Data: {fileID: 21300000, guid: a892482843d2f0743a8c4367f96508ec, type: 3}
  - m_RefCount: 1
    m_Data: {fileID: 21300000, guid: 3db968c7be75dcc48a1ca45c5fc65a0f, type: 3}
  - m_RefCount: 1
    m_Data: {fileID: 21300000, guid: aae1cb579ef58dd49a5b7f1794248668, type: 3}
  - m_RefCount: 1
    m_Data: {fileID: 21300000, guid: 85d5cb279a2bfbd4db2d0ac9048683a0, type: 3}
  - m_RefCount: 1
    m_Data: {fileID: 21300000, guid: 9d2029a6367ba9540950210ddb6a175a, type: 3}
  - m_RefCount: 1
    m_Data: {fileID: 21300000, guid: 2b45b1eb1e90d9e4ab46bc2089ef5c42, type: 3}
  - m_RefCount: 1
    m_Data: {fileID: 21300000, guid: 224fd1dbfde97754ba58d5e91b24b3c4, type: 3}
  - m_RefCount: 1
    m_Data: {fileID: 21300000, guid: 5a5e6b6be7e6d6a4a8a23d873f41cd35, type: 3}
  - m_RefCount: 1
    m_Data: {fileID: 21300000, guid: 0117dc3b25aceeb4298137d5ec6ae345, type: 3}
  - m_RefCount: 1
    m_Data: {fileID: 21300000, guid: f82b04ca40ddc0e4c868f4b7ef606539, type: 3}
  - m_RefCount: 1
    m_Data: {fileID: 21300000, guid: 945ef39ac610fec4f955ed0e37b5c9df, type: 3}
  - m_RefCount: 1
    m_Data: {fileID: 21300000, guid: 650bbe5957a4cd044853dccc48d1649b, type: 3}
  - m_RefCount: 1
    m_Data: {fileID: 21300000, guid: e5d42d7e4cbab0c48879a7cb28330331, type: 3}
  - m_RefCount: 1
    m_Data: {fileID: 21300000, guid: 158c4b1e96d9dc143b43de57ed8c0890, type: 3}
  - m_RefCount: 1
    m_Data: {fileID: 21300000, guid: e662430ea21f8b04387e449acce94c90, type: 3}
  - m_RefCount: 1
    m_Data: {fileID: 21300000, guid: 76b910bd0defd8b429bd2aef5827528a, type: 3}
  - m_RefCount: 1
    m_Data: {fileID: 21300000, guid: 6bdb351d647baec45aaa402b9533036f, type: 3}
  - m_RefCount: 1
    m_Data: {fileID: 21300000, guid: bdc18dec2adacc443845e25a261a9ad5, type: 3}
  - m_RefCount: 1
    m_Data: {fileID: 21300000, guid: 6b0d6bac3105cda4db5fdbce4bb12e17, type: 3}
  - m_RefCount: 1
    m_Data: {fileID: 21300000, guid: aab770af38382bd4bb389329466d3bcf, type: 3}
  - m_RefCount: 1
    m_Data: {fileID: 21300000, guid: 9ae2598e14665684ea1e5ed650180bd9, type: 3}
  m_TileMatrixArray:
  - m_RefCount: 37
    m_Data:
      e00: 1
      e01: 0
      e02: 0
      e03: 0
      e10: 0
      e11: 1
      e12: 0
      e13: 0
      e20: 0
      e21: 0
      e22: 1
      e23: 0
      e30: 0
      e31: 0
      e32: 0
      e33: 1
  m_TileColorArray:
  - m_RefCount: 37
    m_Data: {r: 1, g: 1, b: 1, a: 1}
  - m_RefCount: 0
    m_Data: {r: NaN, g: NaN, b: NaN, a: NaN}
  - m_RefCount: 0
    m_Data: {r: NaN, g: NaN, b: NaN, a: NaN}
  - m_RefCount: 0
    m_Data: {r: 0, g: 0, b: 0, a: 0}
  - m_RefCount: 0
    m_Data: {r: 1e-45, g: 1e-45, b: 1e-45, a: 1e-45}
  - m_RefCount: 0
    m_Data: {r: NaN, g: NaN, b: NaN, a: NaN}
  - m_RefCount: 0
    m_Data: {r: 0, g: 0, b: 0, a: 0}
  - m_RefCount: 0
    m_Data: {r: 1e-45, g: 1e-45, b: 1e-45, a: 1e-45}
  - m_RefCount: 0
    m_Data: {r: NaN, g: NaN, b: NaN, a: NaN}
  - m_RefCount: 0
    m_Data: {r: 0, g: 0, b: 0, a: 0}
  - m_RefCount: 0
    m_Data: {r: 1e-45, g: 1e-45, b: 1e-45, a: 1e-45}
  - m_RefCount: 0
    m_Data: {r: NaN, g: NaN, b: NaN, a: NaN}
  - m_RefCount: 0
    m_Data: {r: 0, g: 0, b: 0, a: 0}
  - m_RefCount: 0
    m_Data: {r: 1e-45, g: 1e-45, b: 1e-45, a: 1e-45}
  - m_RefCount: 0
    m_Data: {r: 3e-45, g: 3e-45, b: 3e-45, a: 3e-45}
  - m_RefCount: 0
    m_Data: {r: 4e-45, g: 4e-45, b: 4e-45, a: 4e-45}
  - m_RefCount: 0
    m_Data: {r: 6e-45, g: 6e-45, b: 6e-45, a: 6e-45}
  - m_RefCount: 0
    m_Data: {r: 7e-45, g: 7e-45, b: 7e-45, a: 7e-45}
  - m_RefCount: 0
    m_Data: {r: NaN, g: NaN, b: NaN, a: NaN}
  - m_RefCount: 0
    m_Data: {r: 0, g: 0, b: 0, a: 0}
  - m_RefCount: 0
    m_Data: {r: 1e-45, g: 1e-45, b: 1e-45, a: 1e-45}
  - m_RefCount: 0
    m_Data: {r: 3e-45, g: 3e-45, b: 3e-45, a: 3e-45}
  - m_RefCount: 0
    m_Data: {r: 4e-45, g: 4e-45, b: 4e-45, a: 4e-45}
  - m_RefCount: 0
    m_Data: {r: 6e-45, g: 6e-45, b: 6e-45, a: 6e-45}
  - m_RefCount: 0
    m_Data: {r: 7e-45, g: 7e-45, b: 7e-45, a: 7e-45}
  m_AnimationFrameRate: 1
  m_Color: {r: 1, g: 1, b: 1, a: 1}
  m_Origin: {x: -1, y: -7, z: 0}
  m_Size: {x: 10, y: 8, z: 1}
  m_TileAnchor: {x: 0.5, y: 0.5, z: 0}
  m_TileOrientation: 0
  m_TileOrientationMatrix:
    e00: 1
    e01: 0
    e02: 0
    e03: 0
    e10: 0
    e11: 1
    e12: 0
    e13: 0
    e20: 0
    e21: 0
    e22: 1
    e23: 0
    e30: 0
    e31: 0
    e32: 0
    e33: 1
--- !u!483693784 &3153243524930976626
TilemapRenderer:
  m_ObjectHideFlags: 0
  m_CorrespondingSourceObject: {fileID: 0}
  m_PrefabInstance: {fileID: 0}
  m_PrefabAsset: {fileID: 0}
  m_GameObject: {fileID: 1794007949722989041}
  m_Enabled: 0
  m_CastShadows: 0
  m_ReceiveShadows: 0
  m_DynamicOccludee: 0
  m_MotionVectors: 1
  m_LightProbeUsage: 0
  m_ReflectionProbeUsage: 0
  m_RenderingLayerMask: 1
  m_RendererPriority: 0
  m_Materials:
  - {fileID: 10754, guid: 0000000000000000f000000000000000, type: 0}
  m_StaticBatchInfo:
    firstSubMesh: 0
    subMeshCount: 0
  m_StaticBatchRoot: {fileID: 0}
  m_ProbeAnchor: {fileID: 0}
  m_LightProbeVolumeOverride: {fileID: 0}
  m_ScaleInLightmap: 1
  m_PreserveUVs: 0
  m_IgnoreNormalsForChartDetection: 0
  m_ImportantGI: 0
  m_StitchLightmapSeams: 0
  m_SelectedEditorRenderState: 0
  m_MinimumChartSize: 4
  m_AutoUVMaxDistance: 0.5
  m_AutoUVMaxAngle: 89
  m_LightmapParameters: {fileID: 0}
  m_SortingLayerID: 0
  m_SortingLayer: 0
  m_SortingOrder: 0
  m_ChunkSize: {x: 32, y: 32, z: 32}
  m_ChunkCullingBounds: {x: 0, y: 0, z: 0}
  m_MaxChunkCount: 16
  m_MaxFrameAge: 16
  m_SortOrder: 0
  m_Mode: 0
  m_DetectChunkCullingBounds: 0
  m_MaskInteraction: 0
--- !u!114 &114699800726623068
MonoBehaviour:
  m_ObjectHideFlags: 0
  m_CorrespondingSourceObject: {fileID: 0}
  m_PrefabInstance: {fileID: 0}
  m_PrefabAsset: {fileID: 0}
  m_GameObject: {fileID: 0}
  m_Enabled: 1
  m_EditorHideFlags: 0
  m_Script: {fileID: 12395, guid: 0000000000000000e000000000000000, type: 0}
  m_Name: Palette Settings
  m_EditorClassIdentifier: 
  cellSizing: 0
