%YAML 1.1
%TAG !u! tag:unity3d.com,2011:
--- !u!74 &7400000
AnimationClip:
  m_ObjectHideFlags: 0
  m_CorrespondingSourceObject: {fileID: 0}
  m_PrefabInstance: {fileID: 0}
  m_PrefabAsset: {fileID: 0}
  m_Name: Dead
  serializedVersion: 6
  m_Legacy: 0
  m_Compressed: 0
  m_UseHighQualityCurve: 1
  m_RotationCurves: []
  m_CompressedRotationCurves: []
  m_EulerCurves: []
  m_PositionCurves: []
  m_ScaleCurves: []
  m_FloatCurves: []
  m_PPtrCurves:
  - curve:
    - time: 0
      value: {fileID: 21300000, guid: 3effd1f4a3db0a5449f55f61cfdeac17, type: 3}
    - time: 0.083333336
      value: {fileID: 21300000, guid: 81c3b8e3f291048428955ff31bef6850, type: 3}
    - time: 0.16666667
      value: {fileID: 21300000, guid: 771ee183611b241429aa947cf5401417, type: 3}
    - time: 0.25
      value: {fileID: 21300000, guid: 40f71d47dcdcabb4bb5abc6d73462298, type: 3}
    - time: 0.33333334
      value: {fileID: 21300000, guid: ac8a99de896430c42b8e0807ce441117, type: 3}
    - time: 0.41666666
      value: {fileID: 21300000, guid: 47f7266e3e273304d9269a00c49f2f49, type: 3}
    - time: 0.5
      value: {fileID: 21300000, guid: c768edddcf04a044fa3a1089058c7604, type: 3}
    - time: 0.5833333
      value: {fileID: 21300000, guid: 2afde0c07bfa0c0419dd2d2bb9aeb793, type: 3}
    - time: 0.6666667
      value: {fileID: 21300000, guid: ee9045df43204594a8cd6312867708f5, type: 3}
    - time: 0.75
      value: {fileID: 21300000, guid: 87b2faf29a5bb434bba4b362cd404b5a, type: 3}
    attribute: m_Sprite
    path: 
    classID: 212
    script: {fileID: 0}
  m_SampleRate: 12
  m_WrapMode: 0
  m_Bounds:
    m_Center: {x: 0, y: 0, z: 0}
    m_Extent: {x: 0, y: 0, z: 0}
  m_ClipBindingConstant:
    genericBindings:
    - serializedVersion: 2
      path: 0
      attribute: 0
      script: {fileID: 0}
      typeID: 212
      customType: 23
      isPPtrCurve: 1
    pptrCurveMapping:
    - {fileID: 21300000, guid: 3effd1f4a3db0a5449f55f61cfdeac17, type: 3}
    - {fileID: 21300000, guid: 81c3b8e3f291048428955ff31bef6850, type: 3}
    - {fileID: 21300000, guid: 771ee183611b241429aa947cf5401417, type: 3}
    - {fileID: 21300000, guid: 40f71d47dcdcabb4bb5abc6d73462298, type: 3}
    - {fileID: 21300000, guid: ac8a99de896430c42b8e0807ce441117, type: 3}
    - {fileID: 21300000, guid: 47f7266e3e273304d9269a00c49f2f49, type: 3}
    - {fileID: 21300000, guid: c768edddcf04a044fa3a1089058c7604, type: 3}
    - {fileID: 21300000, guid: 2afde0c07bfa0c0419dd2d2bb9aeb793, type: 3}
    - {fileID: 21300000, guid: ee9045df43204594a8cd6312867708f5, type: 3}
    - {fileID: 21300000, guid: 87b2faf29a5bb434bba4b362cd404b5a, type: 3}
  m_AnimationClipSettings:
    serializedVersion: 2
    m_AdditiveReferencePoseClip: {fileID: 0}
    m_AdditiveReferencePoseTime: 0
    m_StartTime: 0
    m_StopTime: 0.8333333
    m_OrientationOffsetY: 0
    m_Level: 0
    m_CycleOffset: 0
    m_HasAdditiveReferencePose: 0
    m_LoopTime: 0
    m_LoopBlend: 0
    m_LoopBlendOrientation: 0
    m_LoopBlendPositionY: 0
    m_LoopBlendPositionXZ: 0
    m_KeepOriginalOrientation: 0
    m_KeepOriginalPositionY: 1
    m_KeepOriginalPositionXZ: 0
    m_HeightFromFeet: 0
    m_Mirror: 0
  m_EditorCurves: []
  m_EulerEditorCurves: []
  m_HasGenericRootTransform: 0
  m_HasMotionFloatCurves: 0
  m_Events: []
